STAT 413/613 Homework on Web Data: APIs and Scraping
…
## [1] 76

# 132 min   
# datadf %>% 
#   mutate(islength = str_detect(text, "^\\d{1,3}+\\s+\\D{1,3}$")) -> datadf

# 810
datadf %>%
  mutate(isMPAA = !ismovierank & !isyear & !isgenre & !isStarRating & !isGross_Receipts & !isname &!isMetascore_Rating &!islength) ->datadf

datadf

## # A tibble: 793 x 11
##    text        ismovierank movienum isyear isgenre isStarRating isGross_Receipts
##    <chr>       <lgl>          <int> <lgl>  <lgl>   <lgl>        <lgl>           
##  1 "1."        TRUE               1 FALSE  FALSE   FALSE        FALSE           
##  2 "Gisaengch FALSE              1 FALSE  FALSE   FALSE        FALSE           
##  3 "(2019)"    FALSE              1 TRUE   FALSE   FALSE        FALSE           
##  4 "15"        FALSE              1 FALSE  FALSE   FALSE        FALSE           
##  5 "132 min"   FALSE              1 FALSE  FALSE   FALSE        FALSE           
##  6 "\nComedy, FALSE              1 FALSE  TRUE    FALSE        FALSE           
##  7 "8.6"       FALSE              1 FALSE  FALSE   TRUE         FALSE           
##  8 "96        FALSE              1 FALSE  FALSE   FALSE        FALSE           
##  9 "$53.37M"   FALSE              1 FALSE  FALSE   FALSE        TRUE            
## 10 "2."        TRUE               2 FALSE  FALSE   FALSE        FALSE           
## #  with 783 more rows, and 4 more variables: isname <lgl>, islength <lgl>,
## #   isMetascore_Rating <lgl>, isMPAA <lgl>
…
datawide

## # A tibble: 93 x 10
##    movienum rank  name       year   MPAA  length genre    star_rating metacritic
##       <int> <chr> <chr>      <chr>  <chr> <chr>  <chr>    <chr>       <chr>     
##  1        1 1.    Gisaengch (2019) 15    132 m "\nCome 8.6         "96      
##  2        2 2.    Green Book (2018) 12    130 m "\nBiog 8.2         "69      
##  3        3 3.    The Shape (2017) 18    123 m "\nAdve 7.3         "87      
##  4        4 4.    Moonlight  (I) ( 15    111 m "\nDram 7.4         "99      
##  5        5 5.    Spotlight  (I) ( 15    129 m "\nBiog 8.1         "93      
##  6        6 6.    Birdman o (2014) 18    119 m "\nCome 7.7         "87      
##  7        7 7.    12 Years  (2013) 15    134 m "\nBiog 8.1         "96      
##  8        8 8.    Argo       (2012) 15    120 m "\nBiog 7.7         "86      
##  9        9 9.    The Artist (I) ( 12    100 m "\nCome 7.9         "89      
## 10       10 10.   The King' (2010) 12    118 m "\nBiog 8.0         "88      
## #  with 83 more rows, and 1 more variable: gross_receipts <chr>
…
# length = str_extract_all(length, "[0-9]+")
# datawide %>%
#   mutate(genre = str_replace_all(genre, "\\n", ""),
#          genre = str_squish(genre),
#          metacritic = parse_number(metacritic),
#          rank = parse_number(rank),
#          year = parse_number(year),
#          movienum=NULL) ->
#   datawide

datawide

## # A tibble: 93 x 9
##    rank  name    year   MPAA  length genre star_rating metacritic gross_receipts
##    <chr> <chr>   <list> <chr> <list> <chr> <chr>       <chr>      <chr>         
##  1 1.    Gisaen <chr  15    <chr  Come 8.6         "96       53.37         
##  2 2.    Green  <chr  12    <chr  Biog 8.2         "69       85.08         
##  3 3.    The Sh <chr  18    <chr  Adve 7.3         "87       63.86         
##  4 4.    Moonli <chr  15    <chr  Drama 7.4         "99       27.85         
##  5 5.    Spotli <chr  15    <chr  Biog 8.1         "93       45.06         
##  6 6.    Birdma <chr  18    <chr  Come 7.7         "87       42.34         
##  7 7.    12 Yea <chr  15    <chr  Biog 8.1         "96       56.67         
##  8 8.    Argo    <chr  15    <chr  Biog 7.7         "86       136.03        
##  9 9.    The Ar <chr  12    <chr  Come 7.9         "89       44.67         
## 10 10.   The Ki <chr  12    <chr  Biog 8.0         "88       138.80        
## #  with 83 more rows
…
